^D:\GC2A05\PROGRAMC++\CPP_KADAI\課題11\DEBUG\ENEMY.OBJ|D:\GC2A05\PROGRAMC++\CPP_KADAI\課題11\DEBUG\MAIN.OBJ|D:\GC2A05\PROGRAMC++\CPP_KADAI\課題11\DEBUG\PLAYER.OBJ
D:\GC2A05\PROGRAMC++\CPP_KADAI\DEBUG\課題11.EXE
D:\GC2A05\PROGRAMC++\CPP_KADAI\DEBUG\課題11.ILK
D:\GC2A05\PROGRAMC++\CPP_KADAI\DEBUG\課題11.PDB
