^D:\GC2A05\課題\CPP_KADAI\課題3\CIRCLECLASS.CPP|D:\GC2A05\課題\CPP_KADAI\課題3\MAIN.CPP
D:\GC2A05\課題\CPP_KADAI\課題3\X64\DEBUG\VC142.PDB
D:\GC2A05\課題\CPP_KADAI\課題3\X64\DEBUG\VC142.IDB
D:\GC2A05\課題\CPP_KADAI\課題3\X64\DEBUG\MAIN.OBJ
D:\GC2A05\課題\CPP_KADAI\課題3\X64\DEBUG\CIRCLECLASS.OBJ
^D:\GC2A05\課題\CPP_KADAI\課題3\CIRCLECLASS.CPP
D:\GC2A05\課題\CPP_KADAI\課題3\X64\DEBUG\VC142.PDB
^D:\GC2A05\課題\CPP_KADAI\課題3\MAIN.CPP
D:\GC2A05\課題\CPP_KADAI\課題3\X64\DEBUG\VC142.PDB
