^D:\GC2A05\PROGRAMC++\CPP_KADAI\課題12\DEBUG\MAIN.OBJ|D:\GC2A05\PROGRAMC++\CPP_KADAI\課題12\DEBUG\SAMPLE.OBJ
D:\GC2A05\PROGRAMC++\CPP_KADAI\DEBUG\課題12.ILK
D:\GC2A05\PROGRAMC++\CPP_KADAI\DEBUG\課題12.EXE
D:\GC2A05\PROGRAMC++\CPP_KADAI\DEBUG\課題12.PDB
