^D:\GC2A05\PROGRAMC++\CPP_KADAI\課題1\DEBUG\MAIN.OBJ|D:\GC2A05\PROGRAMC++\CPP_KADAI\課題1\DEBUG\SAMPLE.OBJ
/OUT:"D:\GC2A05\PROGRAMC++\CPP_KADAI\DEBUG\課題1.EXE" /INCREMENTAL /NOLOGO KERNEL32.LIB USER32.LIB GDI32.LIB WINSPOOL.LIB COMDLG32.LIB ADVAPI32.LIB SHELL32.LIB OLE32.LIB OLEAUT32.LIB UUID.LIB ODBC32.LIB ODBCCP32.LIB /MANIFEST /MANIFESTUAC:"level='asInvoker' uiAccess='false'" /manifest:embed /DEBUG:FASTLINK /PDB:"D:\GC2A05\PROGRAMC++\CPP_KADAI\DEBUG\課題1.PDB" /SUBSYSTEM:CONSOLE /TLBID:1 /DYNAMICBASE /NXCOMPAT /IMPLIB:"D:\GC2A05\PROGRAMC++\CPP_KADAI\DEBUG\課題1.LIB" /MACHINE:X86 DEBUG\MAIN.OBJ
DEBUG\SAMPLE.OBJ
