^D:\GC2A05\PROGRAMC++\CPP_KADAI\課題5\DATA.CPP|D:\GC2A05\PROGRAMC++\CPP_KADAI\課題5\MAIN.CPP
D:\GC2A05\PROGRAMC++\CPP_KADAI\課題5\DEBUG\VC142.PDB
D:\GC2A05\PROGRAMC++\CPP_KADAI\課題5\DEBUG\VC142.IDB
D:\GC2A05\PROGRAMC++\CPP_KADAI\課題5\DEBUG\MAIN.OBJ
D:\GC2A05\PROGRAMC++\CPP_KADAI\課題5\DEBUG\DATA.OBJ
^D:\GC2A05\PROGRAMC++\CPP_KADAI\課題5\DATA.CPP
D:\GC2A05\PROGRAMC++\CPP_KADAI\課題5\DEBUG\VC142.PDB
^D:\GC2A05\PROGRAMC++\CPP_KADAI\課題5\MAIN.CPP
D:\GC2A05\PROGRAMC++\CPP_KADAI\課題5\DEBUG\VC142.PDB
D:\GC2A05\PROGRAMC++\CPP_KADAI\課題5\DEBUG\VC142.IDB
D:\GC2A05\PROGRAMC++\CPP_KADAI\課題5\DEBUG\MAIN.OBJ
